{
  "resources": [
    {
      "name": "Breach Level Index",
      "links": [
        {
          "website": "https://breachlevelindex.com/"
        }
      ],
      "description": "Data breach database, statistics, information",
      "price": "Free"
    },
    {
      "name": "Bugcrowd University",
      "links": [
        {
          "website": "https://www.bugcrowd.com/hackers/bugcrowd-university/"
        },
        {
          "source": "https://github.com/bugcrowd/bugcrowd_university"
        }
      ],
      "description": "Modules with slides, videos and sometimes labs to learn web security",
      "price": "Free"
    },
    {
      "name": "ctf-tools",
      "links": [
        {
          "source": "https://github.com/zardus/ctf-tools"
        }
      ],
      "description": "Setup scripts for security tools",
      "price": "Free"
    },
    {
      "name": "Forensics Wiki",
      "links": [
        {
          "website": "http://forensicswiki.org/wiki/Main_Page"
        }
      ],
      "description": "Forensics tips and tools",
      "price": "Free"
    },
    {
      "name": "GHDB",
      "links": [
        {
          "website": "https://www.exploit-db.com/google-hacking-database"
        }
      ],
      "description": "Google Hacking Database; Collection of google dorks",
      "price": "Free"
    },
    {
      "name": "Guifre",
      "links": [
        {
          "website": "https://guif.re/"
        }
      ],
      "description": "Security, system and network cheatsheets",
      "price": "Free"
    },
    {
      "name": "GTFOBins",
      "links": [
        {
          "website": "https://gtfobins.github.io/"
        },
        {
          "source": "https://github.com/GTFOBins/GTFOBins.github.io"
        }
      ],
      "description": "Curated list/cheatsheet of Unix binaries that can be exploited by an attacker to bypass local security restrictions, obtain shells, read files",
      "price": "Free"
    },
    {
      "name": "HTML5 Security Cheatsheet",
      "links": [
        {
          "website": "http://html5sec.org/"
        }
      ],
      "description": "XSS vector making use of HTML5, HTML4, CSS, DOM, UFT7, SVG, JSON, etc ...",
      "price": "Free"
    },
    {
      "name": "LOLBAS",
      "links": [
        {
          "website": "https://lolbas-project.github.io/"
        },
        {
          "source": "https://github.com/LOLBAS-Project/LOLBAS"
        }
      ],
      "description": "Living Off The Land Binaries and Scripts; Curated list/cheatsheet of Windows binaries that can be exploited by an attacker to bypass local security restrictions, obtain shells, read files",
      "price": "Free"
    },
    {
      "name": "Malware Traffic Analysis",
      "links": [
        {
          "website": "https://www.malware-traffic-analysis.net/"
        }
      ],
      "description": "Malware traffic analysis blog and pastebin posts with pcap and malware samples attached; traffic analysis exercises",
      "price": "Free"
    },
    {
      "name": "MD5 maxmin record",
      "links": [
        {
          "website": "http://0xf.kr/md5/"
        }
      ],
      "description": "Collection of various extremes of MD5 hashes",
      "price": "Free"
    },
    {
      "name": "Privacy Tools",
      "links": [
        {
          "website": "https://www.privacytools.io/"
        },
        {
          "source": "https://github.com/privacytoolsIO/privacytools.io"
        }
      ],
      "description": "Website that provides knowledge and tools to protect your privacy against global mass surveillance",
      "price": "Free"
    },
    {
      "name": "PTES",
      "links": [
        {
          "website": "http://www.pentest-standard.org/"
        }
      ],
      "description": "The penetration testing execution standard covers all steps related to a penetration test",
      "price": "Free"
    }
  ]
}
